Habitat Decay Analysis
…
summary stats

# A tibble: 7,819 × 4
   date        flow exceedance_p source
   <date>     <dbl>        <dbl> <chr> 
 1 1986-04-30  7530          0.5 cdec  
 2 1986-09-20  7530          0.5 cdec  
 3 1986-09-21  7530          0.5 cdec  
 4 1986-09-22  7530          0.5 cdec  
 5 1991-09-03  7530          0.5 cdec  
 6 1992-06-12  7530          0.5 cdec  
 7 1992-07-15  7530          0.5 cdec  
 8 1993-05-07  7530          0.5 cdec  
 9 1998-10-10  7530          0.5 cdec  
10 1999-01-31  7530          0.5 cdec  
# … with 7,809 more rows
…
